type: PACKET_IN, switch_id: 0, cxt_id : 0, sig: 3252138110941568550, id: 63, copy_id: 0, port_in: 1
type: TABLE_HIT, switch_id: 0, cxt_id : 0, sig: 3252138110941568550, id: 63, copy_id: 0, table_id: 0 (init_meta_egress), entry_hdl: 0
type: TABLE_HIT, switch_id: 0, cxt_id : 0, sig: 3252138110941568550, id: 63, copy_id: 0, table_id: 1 (check_arp), entry_hdl: 1
type: PACKET_OUT, switch_id: 0, cxt_id : 0, sig: 3252138110941568550, id: 63, copy_id: 0, port_out: 2
type: PACKET_IN, switch_id: 0, cxt_id : 0, sig: 5876281605282307381, id: 64, copy_id: 0, port_in: 2
type: TABLE_HIT, switch_id: 0, cxt_id : 0, sig: 5876281605282307381, id: 64, copy_id: 0, table_id: 0 (init_meta_egress), entry_hdl: 1
type: TABLE_HIT, switch_id: 0, cxt_id : 0, sig: 5876281605282307381, id: 64, copy_id: 0, table_id: 1 (check_arp), entry_hdl: 1
type: PACKET_OUT, switch_id: 0, cxt_id : 0, sig: 5876281605282307381, id: 64, copy_id: 0, port_out: 1
type: PACKET_IN, switch_id: 0, cxt_id : 0, sig: 2741514669836176145, id: 65, copy_id: 0, port_in: 3
type: PACKET_OUT, switch_id: 0, cxt_id : 0, sig: 2741514669836176145, id: 65, copy_id: 0, port_out: 0
type: PACKET_IN, switch_id: 0, cxt_id : 0, sig: 9678993803857325402, id: 66, copy_id: 0, port_in: 1
type: TABLE_HIT, switch_id: 0, cxt_id : 0, sig: 9678993803857325402, id: 66, copy_id: 0, table_id: 0 (init_meta_egress), entry_hdl: 0
type: TABLE_HIT, switch_id: 0, cxt_id : 0, sig: 9678993803857325402, id: 66, copy_id: 0, table_id: 1 (check_arp), entry_hdl: 0
type: TABLE_HIT, switch_id: 0, cxt_id : 0, sig: 9678993803857325402, id: 66, copy_id: 0, table_id: 2 (check_opcode), entry_hdl: 0
type: TABLE_HIT, switch_id: 0, cxt_id : 0, sig: 9678993803857325402, id: 66, copy_id: 0, table_id: 3 (handle_arp_request), entry_hdl: 0
type: PACKET_OUT, switch_id: 0, cxt_id : 0, sig: 9678993803857325402, id: 66, copy_id: 0, port_out: 1
type: PACKET_IN, switch_id: 0, cxt_id : 0, sig: 16111215323151694955, id: 67, copy_id: 0, port_in: 1
type: TABLE_HIT, switch_id: 0, cxt_id : 0, sig: 16111215323151694955, id: 67, copy_id: 0, table_id: 0 (init_meta_egress), entry_hdl: 0
type: TABLE_HIT, switch_id: 0, cxt_id : 0, sig: 16111215323151694955, id: 67, copy_id: 0, table_id: 1 (check_arp), entry_hdl: 1
type: PACKET_OUT, switch_id: 0, cxt_id : 0, sig: 16111215323151694955, id: 67, copy_id: 0, port_out: 2
type: PACKET_IN, switch_id: 0, cxt_id : 0, sig: 9812978371047157554, id: 68, copy_id: 0, port_in: 2
type: TABLE_HIT, switch_id: 0, cxt_id : 0, sig: 9812978371047157554, id: 68, copy_id: 0, table_id: 0 (init_meta_egress), entry_hdl: 1
type: TABLE_HIT, switch_id: 0, cxt_id : 0, sig: 9812978371047157554, id: 68, copy_id: 0, table_id: 1 (check_arp), entry_hdl: 0
type: TABLE_HIT, switch_id: 0, cxt_id : 0, sig: 9812978371047157554, id: 68, copy_id: 0, table_id: 2 (check_opcode), entry_hdl: 0
type: TABLE_HIT, switch_id: 0, cxt_id : 0, sig: 9812978371047157554, id: 68, copy_id: 0, table_id: 3 (handle_arp_request), entry_hdl: 1
type: PACKET_OUT, switch_id: 0, cxt_id : 0, sig: 9812978371047157554, id: 68, copy_id: 0, port_out: 2
type: PACKET_IN, switch_id: 0, cxt_id : 0, sig: 14168111777799229981, id: 69, copy_id: 0, port_in: 2
type: TABLE_HIT, switch_id: 0, cxt_id : 0, sig: 14168111777799229981, id: 69, copy_id: 0, table_id: 0 (init_meta_egress), entry_hdl: 1
type: TABLE_HIT, switch_id: 0, cxt_id : 0, sig: 14168111777799229981, id: 69, copy_id: 0, table_id: 1 (check_arp), entry_hdl: 1
type: PACKET_OUT, switch_id: 0, cxt_id : 0, sig: 14168111777799229981, id: 69, copy_id: 0, port_out: 1
type: PACKET_IN, switch_id: 0, cxt_id : 0, sig: 9672652109011925692, id: 70, copy_id: 0, port_in: 1
type: TABLE_HIT, switch_id: 0, cxt_id : 0, sig: 9672652109011925692, id: 70, copy_id: 0, table_id: 0 (init_meta_egress), entry_hdl: 0
type: TABLE_HIT, switch_id: 0, cxt_id : 0, sig: 9672652109011925692, id: 70, copy_id: 0, table_id: 1 (check_arp), entry_hdl: 1
type: PACKET_OUT, switch_id: 0, cxt_id : 0, sig: 9672652109011925692, id: 70, copy_id: 0, port_out: 2
type: PACKET_IN, switch_id: 0, cxt_id : 0, sig: 12351114086206741270, id: 71, copy_id: 0, port_in: 2
type: TABLE_HIT, switch_id: 0, cxt_id : 0, sig: 12351114086206741270, id: 71, copy_id: 0, table_id: 0 (init_meta_egress), entry_hdl: 1
type: TABLE_HIT, switch_id: 0, cxt_id : 0, sig: 12351114086206741270, id: 71, copy_id: 0, table_id: 1 (check_arp), entry_hdl: 1
type: PACKET_OUT, switch_id: 0, cxt_id : 0, sig: 12351114086206741270, id: 71, copy_id: 0, port_out: 1
